%YAML 1.1
%TAG !u! tag:unity3d.com,2011:
--- !u!1045 &1
EditorBuildSettings:
  m_ObjectHideFlags: 0
  serializedVersion: 2
  m_Scenes:
  - enabled: 1
    path: Assets/Scenes/MainMenu.unity
    guid: 4effead3d75a4f442b3fff1b16c6226b
  - enabled: 1
    path: Assets/Scenes/Level.unity
    guid: 41a83be41d050fc489b98451d56e83e7
  m_configObjects: {}
